…
```
## `summarise()` regrouping output by 'interact_id', 'date' (override with `.groups` argument)
```

```r
sd_pa_table
```

```
## # A tibble: 5,767 x 9
## # Groups:   interact_id, date [5,767]
##    interact_id date       city_id  time wearing mean_mvpa_sd mean_light_sd
##          <int> <date>     <chr>   <dbl>   <dbl>        <dbl>         <dbl>
##  1   101001706 2017-10-23 victor…    81       1            0            81
##  2   101001706 2017-10-24 victor…   755       1           26           729
##  3   101001706 2017-10-25 victor…   822       1           33           789
##  4   101001706 2017-10-26 victor…   652       1           23           629
##  5   101001706 2017-10-27 victor…   768       1           23           745
##  6   101001706 2017-10-28 victor…   679       1           30           649
##  7   101001706 2017-10-29 victor…   834       1           91           743
##  8   101001706 2017-10-30 victor…   785       1           87           698
##  9   101001706 2017-10-31 victor…   722       1           32           690
## 10   101001706 2017-11-01 victor…    48       1            7            41
## # … with 5,757 more rows, and 2 more variables: na_count <int>, count <int>
```
…
```
## `summarise()` regrouping output by 'interact_id', 'date' (override with `.groups` argument)
```

```r
eth_pa_table
```

```
## # A tibble: 8,594 x 9
## # Groups:   interact_id, date [8,594]
##    interact_id date       city_id  time wearing mean_mvpa_sd mean_light_sd
##          <int> <date>     <chr>   <dbl>   <dbl>        <dbl>         <dbl>
##  1   101005415 2017-10-01 victor…   131       1           62            69
##  2   101005415 2017-10-02 victor…   134       1           77            57
##  3   101005415 2017-10-03 victor…   288       1          122           166
##  4   101005415 2017-10-04 victor…   277       1           84           193
##  5   101005415 2017-10-05 victor…   288       1          101           187
##  6   101005415 2017-10-06 victor…   288       1           97           191
##  7   101005415 2017-10-07 victor…   288       1          107           181
##  8   101005415 2017-10-08 victor…    58       1           47            11
##  9   101005415 2017-10-09 victor…   237       1          111           126
## 10   101005415 2017-10-10 victor…    10       1            0            10
## # … with 8,584 more rows, and 2 more variables: na_count <int>, count <int>
```
…
